<?xml version="1.0" encoding="utf-8"?>
<!-- Generator: Adobe Illustrator 18.1.0, SVG Export Plug-In . SVG Version: 6.00 Build 0)  -->
<!DOCTYPE svg PUBLIC "-//W3C//DTD SVG 1.1//EN" "http://www.w3.org/Graphics/SVG/1.1/DTD/svg11.dtd">
<svg version="1.1" id="Warstwa_1" xmlns="http://www.w3.org/2000/svg" xmlns:xlink="http://www.w3.org/1999/xlink" x="0px" y="0px"
	 width="1200px" height="800px" viewBox="102 20.9 1200 800" enable-background="new 102 20.9 1200 800" xml:space="preserve">
<circle fill="#39B54A" cx="876" cy="404.9" r="5.4"/>
<circle fill="#39B54A" cx="896" cy="404.9" r="5.4"/>
<circle fill="#39B54A" cx="916" cy="404.9" r="5.4"/>
<circle fill="#39B54A" cx="936" cy="404.9" r="5.4"/>
<circle fill="#39B54A" cx="456" cy="404.9" r="5.4"/>
<circle fill="#39B54A" cx="476" cy="404.9" r="5.4"/>
<circle fill="#39B54A" cx="496" cy="404.9" r="5.4"/>
<circle fill="#39B54A" cx="516" cy="404.9" r="5.4"/>
<circle fill="#39B54A" cx="691" cy="240.9" r="5.4"/>
<circle fill="#39B54A" cx="691" cy="260.9" r="5.4"/>
<circle fill="#39B54A" cx="691" cy="280.9" r="5.4"/>
<circle fill="#39B54A" cx="691" cy="300.9" r="5.4"/>
<circle fill="#39B54A" cx="691" cy="577.9" r="5.4"/>
<circle fill="#39B54A" cx="691" cy="597.9" r="5.4"/>
<circle fill="#39B54A" cx="691" cy="617.9" r="5.4"/>
<circle fill="#39B54A" cx="691" cy="637.9" r="5.4"/>
<polyline fill="none" stroke="#004571" stroke-width="5" stroke-miterlimit="10" points="1007.5,333.9 1007.5,369.4 972,369.4 "/>
<polygon fill="none" stroke="#004571" stroke-width="5" stroke-miterlimit="10" points="1071.5,463.4 1071.5,331.4 1009,331.4 
	970.5,367.9 970.5,463.4 "/>
<polyline fill="none" stroke="#004571" stroke-width="5" stroke-miterlimit="10" points="980,473.4 1081.5,473.4 1081.5,341.9 "/>
<polyline fill="none" stroke="#004571" stroke-width="5" stroke-miterlimit="10" points="990,483.4 1091.5,483.4 1091.5,351.9 "/>
<path fill="none" stroke="#004571" stroke-width="6" stroke-miterlimit="10" d="M811.8,491.5h-236c-6.6,0-12-5.4-12-12v-136
	c0-6.6,5.4-12,12-12h236c6.6,0,12,5.4,12,12v136C823.8,486.1,818.4,491.5,811.8,491.5z"/>
<rect x="663.8" y="491.5" fill="none" stroke="#004571" stroke-width="6" stroke-miterlimit="10" width="60" height="30"/>
<path fill="none" stroke="#004571" stroke-width="6" stroke-miterlimit="10" d="M754,541.9V532c0-5.7-4.9-10.1-11.5-10.1h-96
	c-6.6,0-12.5,4.4-12.5,10.1v9.9H754z"/>
<path fill="none" stroke="#004571" stroke-width="5" stroke-miterlimit="10" d="M362.3,397.3c3.1,16-19.4,28.3-19.4,28.3
	c-25.4,16.6-23.5,45.2-23.5,45.2s13.9,9.4,56.7,10.3c43.5,0.9,60.2-10.4,60.2-10.4s4.2-30.7-24.9-47.7c0,0-20.7-11.1-17.7-27.1"/>
<path fill="none" stroke="#004571" stroke-width="5" stroke-miterlimit="10" d="M377.9,401.6c-19.8,0.7-27.3-21.7-27.3-21.7
	c-22.9-14.7-6-22.9-6-22.9s14-21.2,33.4-13.7"/>
<path fill="none" stroke="#004571" stroke-width="5" stroke-miterlimit="10" d="M376.6,401.6c19.8,0.7,29.5-21.8,29.5-21.8
	c21.6-16.8,3.8-21.9,3.8-21.9s-14.4-22-33.7-14.5"/>
<path fill="none" stroke="#004571" stroke-width="5" stroke-miterlimit="10" d="M346.6,354.2c0,0,1.4-28.4,30.8-30.3"/>
<path fill="none" stroke="#004571" stroke-width="5" stroke-miterlimit="10" d="M409.8,357.8c0,0,0.9-32.4-33.2-33.9"/>
<path fill="none" stroke="#004571" stroke-width="5" stroke-miterlimit="10" d="M358.3,412c0,0,19,14.8,40.3,0"/>
<polyline fill="none" stroke="#004571" stroke-width="5" stroke-miterlimit="10" points="344.7,425.6 371.4,467.2 377.5,442.5 
	368.4,431.7 378.4,420.6 387.3,431.4 378.9,442.5 386.4,468.2 413.1,424.9 "/>
<polyline fill="none" stroke="#004571" stroke-width="5" stroke-miterlimit="10" points="370.4,465.8 378.8,478.9 386.4,468.2 "/>
<polyline fill="none" stroke="#004571" stroke-width="5" stroke-miterlimit="10" points="757,143.9 757,213.9 627,213.9 627,143.9 
	"/>
<polyline fill="none" stroke="#004571" stroke-width="5" stroke-miterlimit="10" points="757,143.9 757,213.9 627,213.9 627,143.9 
	"/>
<polyline fill="none" stroke="#004571" stroke-width="5" stroke-miterlimit="10" points="744.7,150.5 744.7,198.3 639.3,198.3 
	639.3,150.5 "/>
<polyline fill="none" stroke="#004571" stroke-width="5" stroke-miterlimit="10" points="656.2,82.9 656.2,70.9 726.2,70.9 
	726.2,82.9 "/>
<path fill="none" stroke="#004571" stroke-width="5" stroke-miterlimit="10" d="M666,123.6c0,13.8-11.4,25.2-25.2,25.2
	s-25.2-11-25.2-24.8v-20.1l30.8-22.5H737l28.5,22.5v20c0,13.8-11.1,25-24.9,25c-13.8,0-24.9-11.2-24.9-25"/>
<path fill="none" stroke="#004571" stroke-width="5" stroke-miterlimit="10" d="M715.8,123.9c0,13.8-11.2,25-25,25s-25-11.2-25-25"
	/>
<line fill="none" stroke="#004571" stroke-width="5" stroke-miterlimit="10" x1="616" y1="124.4" x2="766" y2="124.4"/>
<line fill="none" stroke="#004571" stroke-width="5" stroke-miterlimit="10" x1="616" y1="104.4" x2="766" y2="104.4"/>
<path fill="none" stroke="#004571" stroke-width="5" stroke-miterlimit="10" d="M757.2,752.7H630.8c-3.7,0-6.8-3-6.8-6.8v-76.4
	c0-3.7,3-6.8,6.8-6.8h126.4c3.7,0,6.8,3,6.8,6.8v76.4C764,749.7,761,752.7,757.2,752.7z"/>
<polyline fill="none" stroke="#004571" stroke-width="5" stroke-linecap="round" stroke-miterlimit="10" points="753.3,675 
	693.6,720.1 633.8,675 "/>
</svg>
