<?xml version="1.0" encoding="utf-8"?>
<!-- Generator: Adobe Illustrator 18.1.0, SVG Export Plug-In . SVG Version: 6.00 Build 0)  -->
<!DOCTYPE svg PUBLIC "-//W3C//DTD SVG 1.1//EN" "http://www.w3.org/Graphics/SVG/1.1/DTD/svg11.dtd">
<svg version="1.1" id="Warstwa_1" xmlns="http://www.w3.org/2000/svg" xmlns:xlink="http://www.w3.org/1999/xlink" x="0px" y="0px"
	 width="482.3px" height="126.6px" viewBox="0 0 482.3 126.6" enable-background="new 0 0 482.3 126.6" xml:space="preserve">
<rect x="336.7" y="86.1" fill="#FFFFFF" width="15.4" height="16.2"/>
<g>
	<path fill="#FFFFFF" d="M17,45.4c-11.7,0-17,4.7-17,15.3C0,70,4.3,74.8,15.4,77.8l10.4,2.8c0,0,2.6,0.7,2.6,0.7
		c4.7,1.1,7.5,2,7.5,5.4c0,2.9-2.2,3.3-3.4,3.3H0.7v12.2h36c9.9,0,14.7-5,14.7-15.2c0-12.5-9.1-15-17.9-17.4L22,66.4
		c-4.5-1.3-7.3-2.3-7.3-5.5c0-2.6,0.5-3.4,4.2-3.4H50V45.4H17z"/>
	<path fill="#FFFFFF" d="M154.1,45.4h-32.4v12.2h28.1c4.2,0,6,1.9,6,6.2v1.9H133c-9.5,0-14.9,6.7-14.9,18.3c0,12.2,5,18.3,14.9,18.3
		h27.1c7,0,10.7-3.7,10.7-10.7V62.8C170.8,52,164.4,45.4,154.1,45.4 M155.9,88.6c0,1.2-0.3,1.5-1.5,1.5h-16.8
		c-2.1,0-4.2-0.5-4.2-6.1c0-5.6,2.1-6.1,4.2-6.1h18.3V88.6z"/>
	<path fill="#FFFFFF" d="M191.8,45.4c-7,0-10.7,3.7-10.7,10.7v46.2h14.9V59.1c0-1.2,0.3-1.5,1.5-1.5h10.9c6.9,0,9.8,3.2,9.8,10.9
		v33.8h14.9v-37c0-13.4-7.3-19.9-22.5-19.9H191.8z"/>
	<path fill="#FFFFFF" d="M281.5,45.4v43.2c0,1.2-0.3,1.5-1.5,1.5h-11.7c-6.9,0-9.8-3.1-9.8-10.9V45.4h-14.9v37
		c0,13.4,7.3,19.9,22.5,19.9h19.7c7,0,10.7-3.7,10.7-10.7V45.4H281.5z"/>
	<rect x="307.6" y="45.4" fill="#FFFFFF" width="14.9" height="81.1"/>
	<rect x="307.6" y="21.2" fill="#FFFFFF" width="14.9" height="13.3"/>
	<rect x="59.3" y="28.1" fill="#FFFFFF" width="14.9" height="74.2"/>
	<path fill="#FFFFFF" d="M95.6,45.4L78.9,63.8c-1.5,1.6-4.1,4.4-4.1,9.2c0,3.3,1.3,6.4,4.1,9.6c0,0,18.6,19.8,18.6,19.8h18.8
		c0,0-24.4-26-24.5-26.1c-1.5-1.6-2.1-2.7-2.1-3.7c0-1.1,0.3-1.9,1.3-2.8c0,0,22.6-24.3,22.6-24.3H95.6z"/>
	<path fill="#FFFFFF" d="M430.4,44.8c-18.1,0-30.2,4.9-30.2,29c0,24.2,12.1,29.2,30.2,29.2c18.1,0,30.2-5,30.2-29.2
		C460.6,49.7,448.5,44.8,430.4,44.8 M430.4,90.7c-11.1,0-14.8-4.3-14.8-17c0-12.6,3.7-16.8,14.8-16.8c11.1,0,14.9,4.2,14.9,16.8
		C445.2,86.4,441.5,90.7,430.4,90.7"/>
	<path fill="#FFFFFF" d="M397.1,57.6V45.4h-15.3V28.1h-14.9v55.1c0,12.8,7,19.1,21.3,19.1h8.9V90.1h-4.5c-7.9,0-10.9-2.5-10.9-9.3
		V57.6H397.1z"/>
	<polygon fill="#FFFFFF" points="469.4,113.7 469.4,92.1 482.3,92.1 482.3,126.6 447.8,126.6 447.8,113.7 	"/>
	<polygon fill="#FFFFFF" points="352.8,13 352.8,34.5 339.9,34.5 339.9,0 374.4,0 374.4,13 	"/>
</g>
</svg>
