<?xml version="1.0" encoding="utf-8"?>
<!-- Generator: Adobe Illustrator 18.1.0, SVG Export Plug-In . SVG Version: 6.00 Build 0)  -->
<!DOCTYPE svg PUBLIC "-//W3C//DTD SVG 1.1//EN" "http://www.w3.org/Graphics/SVG/1.1/DTD/svg11.dtd">
<svg version="1.1" id="Warstwa_1" xmlns="http://www.w3.org/2000/svg" xmlns:xlink="http://www.w3.org/1999/xlink" x="0px" y="0px"
	 width="993.7px" height="122.3px" viewBox="0 0 993.7 122.3" enable-background="new 0 0 993.7 122.3" xml:space="preserve">
<g>
	<path fill="#FFFFFF" d="M42.5,29.5l-7.3,10.4h31.2c1.2-4.1,3.5-7.6,6.7-10.4H42.5z"/>
	<polygon fill="#FFFFFF" points="9.4,76.7 0,90 57,90 62.2,76.7 	"/>
	<g>
		<path fill="#FFFFFF" d="M70.7,79.2c3.2,1.8,9.5,4.3,15.1,4.3c6.1-0.1,9.7-3.6,9.7-7.8c0-4-2.1-6.5-8.3-9.7
			c-7.2-3.8-12.4-9.2-12.4-16.4c0-12.2,10.6-20.7,25.5-20.7c6.6,0,12,1.6,14.9,3.2L111.4,43c-2.3-1.3-6.6-2.8-11.8-2.8
			c-5.7,0-9.6,3.1-9.6,7.4c0,3.5,2.9,6,8.2,8.7c6.9,3.8,13.1,8.9,13.1,17c0,13.8-11.7,21.5-26.8,21.5c-7.4,0-14.2-2.1-17.6-4.5
			L70.7,79.2z"/>
		<path fill="#FFFFFF" d="M116.5,84.1l25-27.3c5.3-5.7,9.2-9.2,14.4-13.9l0.1-0.4h-29.4l2.5-12.3h47.4l-1.8,9.7l-24.5,26.8
			c-5.7,6.1-9.5,9.7-14.4,14V81h32l-2.5,12.3h-50.5L116.5,84.1z"/>
		<path fill="#FFFFFF" d="M198,30.3l4.9,30.4c1.2,6.7,1.9,11.4,2.5,15.7h0.3c1.6-3.9,3.1-8.2,6.1-15l13.6-31.1h15.9l-23,46.5
			c-7.6,15.4-14.6,26.5-23,34.7c-7.2,7.1-15.5,10.1-19.4,10.9l-3.5-12.9c2.8-0.9,7.2-2.6,11.1-5.4c4.3-3.1,8.3-7.5,11.1-12.6
			c0.5-1,0.5-1.8,0.3-3l-12.6-58.1H198z"/>
		<path fill="#FFFFFF" d="M272.3,1.4l-7.9,38.2h0.3c5-6.9,12.6-10.7,20.7-10.7c13.5,0,19,11,19,22.3c0,19.9-13.7,43.6-40.6,43.6
			c-13.2,0-21.1-5.6-21-17c0-3.6,0.5-7.4,1.2-10.9l13.2-65.5H272.3z M258.9,67.7c-0.4,2.2-0.8,4.5-0.6,7.5c0,5.2,3,8,8.4,8
			c13.2,0,21.9-17,21.9-29.3c0-7-3-12.8-10-12.8c-7.8,0-15.8,8-18.4,20.7L258.9,67.7z"/>
		<path fill="#FFFFFF" d="M310.6,93.3l17.5-91.9H343l-10.6,56.2h0.3c1.9-2.3,4-4.8,5.7-6.7l18.9-20.6h18.6l-27.2,26l18.1,37h-16.7
			l-12.9-28.9l-7.4,7l-4.1,21.9H310.6z"/>
		<path fill="#FFFFFF" d="M413.5,93.3c0.1-3.8,0.6-8.8,1.2-14.2h-0.4c-6.2,11.6-14.5,15.7-22.5,15.7c-11.3,0-18.6-8.8-18.6-21.5
			c0-21.5,15-44.4,44.4-44.4c6.9,0,14.2,1.3,19,2.9l-6.5,32.9c-1.8,9.4-2.8,21.2-2.6,28.7H413.5z M419.7,41.2
			c-1.6-0.4-3.5-0.6-6.2-0.6c-14,0-24.7,15.7-24.7,30c0,6.6,2.5,12,9.1,12c7,0,15.5-8.8,18.5-24.9L419.7,41.2z"/>
		<path fill="#FFFFFF" d="M443.3,93.3l9.2-49.2h-8.2L447,30h8.2l0.6-3.4c1.3-7.4,4.3-15.3,10.6-20.6c5-4.4,11.8-6.1,18-6.1
			c4.5,0,7.9,0.6,10,1.6l-3.2,14.9c-1.7-0.8-3.6-1.2-6.1-1.2c-6,0-9.7,5.3-10.9,11.6l-0.6,3.1h12.6l-2.7,14.1H471l-9.2,49.2H443.3z"
			/>
		<path fill="#FFFFFF" d="M523.9,93.3c0.1-3.8,0.5-8,0.9-12.6h-0.4c-5.8,10.5-13.9,14-21.2,14c-11.4,0-19.2-8.8-19.2-22
			c0-21.4,14.1-44.1,45.3-44.1c7.5,0,15.7,1.4,21,3.1l-6.7,33.1c-1.6,8.2-2.7,20.6-2.5,28.5H523.9z M529.4,43.2
			c-1.4-0.3-3.2-0.5-5-0.5c-12,0-20.8,14.8-20.8,26.5c0,6.2,2.5,10.5,7.6,10.5c5.6,0,12.4-6.3,15.3-21.9L529.4,43.2z"/>
		<path fill="#FFFFFF" d="M554.2,93.3l17.3-91.9h18.5l-10.4,55h0.3c1.9-2.5,3.9-4.9,5.7-7.3L601.9,30h22.9l-26.9,26l17.6,37.3h-20.7
			l-11.1-27.1l-7,6.6l-3.9,20.5H554.2z"/>
		<path fill="#FFFFFF" d="M658.7,12.3L655.3,30h13.5l-2.7,14.1h-13.5l-4.3,21.5c-0.5,2.6-1,5.8-1,8c0,3.1,1.3,5.3,5.3,5.3
			c1.7,0,3.5,0,5.2-0.3l-2.2,14.6c-2.3,0.9-7,1.4-11,1.4c-11.1,0-16.4-5.7-16.4-13.6c0-3.5,0.4-7,1.3-11.8l4.9-25.2h-8l2.6-14.1h8.2
			l2.6-13.3L658.7,12.3z"/>
		<path fill="#FFFFFF" d="M736.6,30l-8.2,42.7c-1.6,8-2.5,14.9-3.4,20.6h-16.4l1.2-10.4h-0.3c-6.5,8.3-14.2,11.8-21.9,11.8
			c-10.1,0-16.2-5.7-16.2-17.7c0-3.5,0.4-7.3,1.3-11.6l6.6-35.3H698L691.7,64c-0.5,2.9-0.9,6-0.9,8.3c0,4.1,1.6,7.4,6.3,7.4
			c6.3,0,12.8-7.6,15.3-20.3L718,30H736.6z"/>
		<path fill="#FFFFFF" d="M740.4,93.3l7.1-37.7c1.8-9.6,2.6-20.2,3.2-25.6h16.2c-0.4,4.3-0.8,8.5-1.2,12.9h0.4
			c4.4-8.4,11.5-14.4,20.2-14.4c1.2,0,2.3,0,3.5,0.1l-3.6,18.1c-0.9-0.1-1.9-0.1-3-0.1c-11.9,0-17.5,10.6-19.8,23L759,93.3H740.4z"
			/>
		<path fill="#FFFFFF" d="M828.5,93.3c0.1-3.8,0.5-8,0.9-12.6H829c-5.8,10.5-13.9,14-21.2,14c-11.4,0-19.2-8.8-19.2-22
			c0-21.4,14.1-44.1,45.3-44.1c7.5,0,15.7,1.4,21,3.1l-6.7,33.1c-1.5,8.2-2.7,20.6-2.5,28.5H828.5z M834,43.2
			c-1.4-0.3-3.2-0.5-5.1-0.5c-12,0-20.8,14.8-20.8,26.5c0,6.2,2.5,10.5,7.6,10.5c5.6,0,12.4-6.3,15.3-21.9L834,43.2z"/>
		<path fill="#FFFFFF" d="M859.6,85.3c0-6.1,4.4-11.1,10.6-11.1c5.4,0,9.2,3.9,9.2,9.6c0,6.2-4.5,10.9-10.7,10.9
			C863.2,94.6,859.6,90.6,859.6,85.3z"/>
		<path fill="#FFFFFF" d="M885.2,119l12.3-65.2c1.4-7.5,2.9-17,3.6-23.4h13.6l-1.4,10.4h0.3c5.4-7.5,13.2-11.8,21.4-11.8
			c13.6,0,19.9,11.1,19.9,23.4c0,22-15.3,42.5-36.8,42.5c-5.8,0-10.2-1.3-12.6-2.7h-0.3l-5,26.9H885.2z M907.8,80
			c2.3,1.9,5.7,3.1,10.1,3.1c11.7,0,21.2-15.5,21.2-29.6c0-5.8-2.6-12.3-10-12.3c-7.6,0-15.9,8.7-18.6,23.4L907.8,80z"/>
		<path fill="#FFFFFF" d="M961.1,93.3l17.6-91.9h15l-17.5,91.9H961.1z"/>
	</g>
	<path fill="#FFFFFF" d="M18.1,64.3h53.4c-3-3.3-4.8-7.6-5.6-12H26.5L18.1,64.3z"/>
</g>
</svg>
