<?xml version="1.0" encoding="utf-8"?>
<!-- Generator: Adobe Illustrator 18.1.1, SVG Export Plug-In . SVG Version: 6.00 Build 0)  -->
<!DOCTYPE svg PUBLIC "-//W3C//DTD SVG 1.1//EN" "http://www.w3.org/Graphics/SVG/1.1/DTD/svg11.dtd">
<svg version="1.1" id="Warstwa_1" xmlns="http://www.w3.org/2000/svg" xmlns:xlink="http://www.w3.org/1999/xlink" x="0px" y="0px"
	 width="1000px" height="700px" viewBox="0 0 1000 700" enable-background="new 0 0 1000 700" xml:space="preserve">
<g>
	<path fill="#4D4D4D" d="M0,0v700h1000V0H0z M589.8,422l-16.4,16.4c-1.5,1.5-4,1.5-5.5,0l-45.2-45.2c-12,7.8-26.4,12.1-41.8,11.7
		c-39.3-1.2-70.8-33.9-70.7-73.2c0.1-40.1,32.7-72.7,72.8-72.8c39.4-0.1,72,31.4,73.2,70.7c0.5,15.4-3.9,29.8-11.6,41.8l45.2,45.2
		C591.3,418.1,591.3,420.5,589.8,422z"/>
	<path fill="#4D4D4D" d="M480.9,282.1c-25.6,1.2-46.3,21.9-47.4,47.4c-1.3,29.3,22.8,53.5,52.1,52.1c25.6-1.2,46.3-21.9,47.4-47.4
		C534.3,304.9,510.2,280.8,480.9,282.1z M512,334.9c0,2-1.5,5.1-3.6,5.1H490v17.1c0,2-1.8,3.9-3.8,3.9h-7.4c-2,0-4.8-1.8-4.8-3.9
		V340h-17.5c-2,0-4.5-3.1-4.5-5.1v-7.4c0-2,2.5-3.5,4.5-3.5H474v-18.8c0-2,2.7-3.2,4.8-3.2h7.4c2,0,3.8,1.2,3.8,3.2V324h18.4
		c2,0,3.6,1.4,3.6,3.5V334.9z"/>
</g>
</svg>
